<?xml version="1.0" encoding="iso-8859-1"?>
<!-- Generator: Adobe Illustrator 23.0.1, SVG Export Plug-In . SVG Version: 6.00 Build 0)  -->
<svg version="1.1" xmlns="http://www.w3.org/2000/svg" xmlns:xlink="http://www.w3.org/1999/xlink" x="0px" y="0px" width="48px"
	 height="48px" viewBox="0 0 48 48" enable-background="new 0 0 48 48" xml:space="preserve">
<g id="guides">
</g>
<g id="Layer_2">
	<g>
		<linearGradient id="SVGID_1_" gradientUnits="userSpaceOnUse" x1="14.5" y1="42" x2="14.5" y2="25">
			<stop  offset="0" style="stop-color:#7A7D82"/>
			<stop  offset="1" style="stop-color:#A1AAB0"/>
		</linearGradient>
		<path fill-rule="evenodd" clip-rule="evenodd" fill="url(#SVGID_1_)" d="M23,25v17H8.2C6.98,42,6,41.02,6,39.8V26.55
			c0.48,0.13,0.98,0.2,1.5,0.2c1.61,0,3.07-0.67,4.1-1.75H23z"/>
		<path fill-rule="evenodd" clip-rule="evenodd" fill="#6A6D73" d="M39.8,42H25V25h17v14.8C42,41.02,41.02,42,39.8,42z"/>
		<path fill="#6A6D73" d="M3,5h21c0.55,0,1,0.45,1,1v0c0,0.55-0.45,1-1,1H3C2.45,7,2,6.55,2,6v0C2,5.45,2.45,5,3,5z"/>
		<path fill="#6A6D73" d="M3,20h21c0.55,0,1,0.45,1,1v0c0,0.55-0.45,1-1,1H3c-0.55,0-1-0.45-1-1v0C2,20.45,2.45,20,3,20z"/>
		<path fill="#6A6D73" d="M3,13h21c0.55,0,1,0.45,1,1v0c0,0.55-0.45,1-1,1H3c-0.55,0-1-0.45-1-1v0C2,13.45,2.45,13,3,13z"/>
		<circle fill="#77BAFF" cx="10.5" cy="6" r="3.75"/>
		<circle fill="#77BAFF" cx="18" cy="14" r="3.75"/>
		<circle fill="#77BAFF" cx="7.5" cy="21" r="3.75"/>
		<linearGradient id="SVGID_2_" gradientUnits="userSpaceOnUse" x1="33.5" y1="23" x2="33.5" y2="6">
			<stop  offset="0" style="stop-color:#7A7D82"/>
			<stop  offset="1" style="stop-color:#A1AAB0"/>
		</linearGradient>
		<path fill-rule="evenodd" clip-rule="evenodd" fill="url(#SVGID_2_)" d="M42,8.2V23H26.23c0.48-0.53,0.77-1.24,0.77-2
			c0-1.3-0.84-2.41-2-2.82v-1.36c1.16-0.41,2-1.52,2-2.82s-0.84-2.41-2-2.82V8.82C26.16,8.41,27,7.3,27,6h12.8
			C41.02,6,42,6.98,42,8.2z"/>
		<g>
			<g>
				<rect x="29" y="13" fill-rule="evenodd" clip-rule="evenodd" fill="#D1D1D3" width="10" height="2"/>
			</g>
			<g>
				<rect x="33" y="9" fill-rule="evenodd" clip-rule="evenodd" fill="#D1D1D3" width="2" height="10"/>
			</g>
		</g>
		<g>
			<g>
				
					<rect x="9.5" y="32.5" transform="matrix(0.7071 -0.7071 0.7071 0.7071 -19.4411 20.065)" fill-rule="evenodd" clip-rule="evenodd" fill="#D1D1D3" width="10" height="2"/>
			</g>
			<g>
				
					<rect x="13.5" y="28.5" transform="matrix(0.7071 -0.7071 0.7071 0.7071 -19.4411 20.065)" fill-rule="evenodd" clip-rule="evenodd" fill="#D1D1D3" width="2" height="10"/>
			</g>
		</g>
		<g>
			<g>
				<rect x="28" y="30" fill-rule="evenodd" clip-rule="evenodd" fill="#D1D1D3" width="11" height="2"/>
			</g>
			<g>
				<rect x="28" y="34" fill-rule="evenodd" clip-rule="evenodd" fill="#D1D1D3" width="11" height="2"/>
			</g>
		</g>
	</g>
</g>
</svg>
