<?xml version="1.0" encoding="iso-8859-1"?>
<!-- Generator: Adobe Illustrator 23.0.1, SVG Export Plug-In . SVG Version: 6.00 Build 0)  -->
<svg version="1.1" xmlns="http://www.w3.org/2000/svg" xmlns:xlink="http://www.w3.org/1999/xlink" x="0px" y="0px" width="32px"
	 height="32px" viewBox="0 0 32 32" enable-background="new 0 0 32 32" xml:space="preserve">
<g id="guides">
</g>
<g id="Layer_2">
	<path fill-rule="evenodd" clip-rule="evenodd" fill="#77BAFF" d="M23.8,17.37l-9.67,9.28C13.72,27.02,13,26.74,13,26.19V19H2.6
		C2.27,19,2,18.73,2,18.4v-2.8C2,15.27,2.27,15,2.6,15H13V7.63c0-0.55,0.72-0.84,1.13-0.46l9.67,9.28
		C24.07,16.7,24.07,17.11,23.8,17.37z"/>
	<g>
		<linearGradient id="SVGID_1_" gradientUnits="userSpaceOnUse" x1="17.6757" y1="24.3243" x2="32.3243" y2="9.6757">
			<stop  offset="0" style="stop-color:#7A7D82"/>
			<stop  offset="1" style="stop-color:#A1AAB0"/>
		</linearGradient>
		<path fill-rule="evenodd" clip-rule="evenodd" fill="url(#SVGID_1_)" d="M20,23.6v2.8c0,0.33,0.27,0.6,0.6,0.6H26h1h2.4
			c0.33,0,0.6-0.27,0.6-0.6V7.6C30,7.27,29.73,7,29.4,7H27h-1h-5.4C20.27,7,20,7.27,20,7.6v2.8c0,0.33,0.27,0.6,0.6,0.6H26v12h-5.4
			C20.27,23,20,23.27,20,23.6z"/>
	</g>
</g>
</svg>
