<?xml version="1.0" encoding="iso-8859-1"?>
<!-- Generator: Adobe Illustrator 23.0.1, SVG Export Plug-In . SVG Version: 6.00 Build 0)  -->
<svg version="1.1" xmlns="http://www.w3.org/2000/svg" xmlns:xlink="http://www.w3.org/1999/xlink" x="0px" y="0px" width="32px"
	 height="32px" viewBox="0 0 32 32" enable-background="new 0 0 32 32" xml:space="preserve">
<g id="guides">
</g>
<g id="Layer_2">
	<g>
		<path fill="#E9EAEB" d="M21,9c3.86,0,7,3.14,7,7c0,3.86-3.14,7-7,7H11c-3.86,0-7-3.14-7-7c0-3.86,3.14-7,7-7H21 M21,8H11
			c-4.42,0-8,3.58-8,8v0c0,4.42,3.58,8,8,8h10c4.42,0,8-3.58,8-8v0C29,11.58,25.42,8,21,8L21,8z"/>
	</g>
	<circle fill="#E9EAEB" cx="11" cy="16" r="5"/>
</g>
</svg>
