<?xml version="1.0" encoding="iso-8859-1"?>
<!-- Generator: Adobe Illustrator 23.0.1, SVG Export Plug-In . SVG Version: 6.00 Build 0)  -->
<svg version="1.1" xmlns="http://www.w3.org/2000/svg" xmlns:xlink="http://www.w3.org/1999/xlink" x="0px" y="0px" width="48px"
	 height="48px" viewBox="0 0 48 48" enable-background="new 0 0 48 48" xml:space="preserve">
<g id="guides">
</g>
<g id="Layer_2">
	<g>
		<path fill-rule="evenodd" clip-rule="evenodd" fill="#6A6D73" d="M42,29.3v10.5c0,1.22-0.98,2.2-2.2,2.2H25v-9.57
			c1.84,0.73,3.84,1.13,5.94,1.13C35.19,33.56,39.08,31.94,42,29.3z"/>
		<path fill="#6A6D73" d="M19.69,5c-0.66,0.62-1.27,1.28-1.82,2H3C2.45,7,2,6.55,2,6s0.45-1,1-1H19.69z"/>
		<path fill="#6A6D73" d="M14.71,20c0.12,0.69,0.29,1.36,0.51,2H3c-0.55,0-1-0.45-1-1s0.45-1,1-1H14.71z"/>
		<path fill="#6A6D73" d="M3,13h11.95c-0.17,0.65-0.3,1.32-0.37,2H3c-0.55,0-1-0.45-1-1S2.45,13,3,13z"/>
		<circle fill="#77BAFF" cx="10.5" cy="6" r="3.75"/>
		<circle fill="#77BAFF" cx="7.5" cy="21" r="3.75"/>
		<linearGradient id="SVGID_1_" gradientUnits="userSpaceOnUse" x1="32.72" y1="23" x2="32.72" y2="7.56">
			<stop  offset="0" style="stop-color:#7A7D82"/>
			<stop  offset="1" style="stop-color:#A1AAB0"/>
		</linearGradient>
		<path fill-rule="evenodd" clip-rule="evenodd" fill="url(#SVGID_1_)" d="M40.44,17.06c0,2.25-0.78,4.32-2.09,5.94H26.23
			c0.48-0.53,0.77-1.24,0.77-2c0-1.3-0.84-2.41-2-2.82v-1.36c1.16-0.41,2-1.52,2-2.82s-0.84-2.41-2-2.82V9.65
			c1.62-1.31,3.69-2.09,5.94-2.09C36.18,7.56,40.44,11.82,40.44,17.06z"/>
		<g>
			<g>
				<rect x="29" y="13" fill-rule="evenodd" clip-rule="evenodd" fill="#D1D1D3" width="10" height="2"/>
			</g>
			<g>
				<rect x="33" y="9" fill-rule="evenodd" clip-rule="evenodd" fill="#D1D1D3" width="2" height="10"/>
			</g>
		</g>
		<g>
			<rect x="28" y="34" fill-rule="evenodd" clip-rule="evenodd" fill="#D1D1D3" width="11" height="2"/>
		</g>
		<path fill="#6A6D73" d="M30.94,31.56c-8,0-14.5-6.5-14.5-14.5s6.5-14.5,14.5-14.5s14.5,6.5,14.5,14.5S38.93,31.56,30.94,31.56z
			 M30.94,5.56c-6.34,0-11.5,5.16-11.5,11.5s5.16,11.5,11.5,11.5s11.5-5.16,11.5-11.5S37.28,5.56,30.94,5.56z"/>
		
			<rect x="19.47" y="26.03" transform="matrix(0.7071 0.7071 -0.7071 0.7071 25.4631 -6.4089)" fill="#6A6D73" width="2" height="3"/>
		<linearGradient id="SVGID_2_" gradientUnits="userSpaceOnUse" x1="2.5604" y1="36.3091" x2="20.8213" y2="36.3091">
			<stop  offset="0" style="stop-color:#7A7D82"/>
			<stop  offset="1" style="stop-color:#A1AAB0"/>
		</linearGradient>
		<path fill="url(#SVGID_2_)" d="M4.6,44.9l-1.5-1.5c-0.75-0.75-0.72-1.97,0.06-2.68l14.12-12.84l2.12-0.71l1.41,1.41l-0.71,2.12
			L7.28,44.83C6.57,45.62,5.35,45.64,4.6,44.9z"/>
	</g>
</g>
</svg>
